# Blender MTL File: 'None'
# Material Count: 2

newmtl Material.001
Ns 96.078431
Ka 0.000000 0.000000 0.000000
Kd 0.042055 0.640000 0.000000
Ks 0.500000 0.500000 0.500000
Ni 1.000000
d 1.000000
illum 2

newmtl wire_177028149
Ns 92.156863
Ka 0.000000 0.000000 0.000000
Kd 0.181267 0.063390 0.033278
Ks 0.955088 0.955088 0.955088
Ni 1.000000
d 1.000000
illum 2
