# Blender MTL File: 'cgs.blend'
# Material Count: 11

newmtl Black.001
Ns 96.078431
Ka 0.000000 0.000000 0.000000
Kd 0.007826 0.008280 0.008280
Ks 0.500000 0.500000 0.500000
Ni 1.000000
d 1.000000
illum 2
map_Bump C:\\Users\\Michiel\\Downloads\\brushedmetal_bump.jpg
map_Kd C:\\Users\\Michiel\\Downloads\\brushedmetal_bump.jpg

newmtl Glass
Ns 96.078431
Ka 0.000000 0.000000 0.000000
Kd 0.600532 0.640000 0.528774
Ks 0.458173 0.500000 0.468430
Ni 1.600000
d 0.000000
illum 2

newmtl Material
Ns 749.999996
Ka 0.000000 0.000000 0.000000
Kd 0.400000 0.387320 0.350699
Ks 0.195269 0.183641 0.195989
Ni 1.000000
d 1.000000
illum 2

newmtl Material.004
Ns 96.078431
Ka 0.000000 0.000000 0.000000
Kd 0.639282 0.451769 0.273532
Ks 0.500000 0.500000 0.500000
Ni 1.000000
d 1.000000
illum 2

newmtl Material.005
Ns 96.078431
Ka 0.000000 0.000000 0.000000
Kd 0.639282 0.528184 0.544886
Ks 0.950000 0.950000 0.950000
Ni 1.000000
d 1.000000
illum 2

newmtl Material.006
Ns 96.078431
Ka 0.000000 0.000000 0.000000
Kd 0.009290 0.009829 0.009829
Ks 0.500000 0.500000 0.500000
Ni 1.000000
d 1.000000
illum 2
map_Bump C:\\Users\\Michiel\\Downloads\\26-05-2013_sprayed_031.jpg
map_Kd C:\\Users\\Michiel\\Downloads\\26-05-2013_sprayed_031.jpg

newmtl Material.007
Ns 96.078431
Ka 0.000000 0.000000 0.000000
Kd 0.639282 0.451769 0.273532
Ks 0.500000 0.500000 0.500000
Ni 1.000000
d 1.000000
illum 2

newmtl Material.008
Ns 96.078431
Ka 0.000000 0.000000 0.000000
Kd 0.400000 0.287283 0.000000
Ks 0.950000 0.760635 0.760635
Ni 1.000000
d 1.000000
illum 2

newmtl Material.009
Ns 96.078431
Ka 0.000000 0.000000 0.000000
Kd 0.639282 0.451769 0.273532
Ks 0.500000 0.500000 0.500000
Ni 1.000000
d 1.000000
illum 2

newmtl Wood_Material
Ns 96.078431
Ka 0.000000 0.000000 0.000000
Kd 0.629919 0.233254 0.033729
Ks 0.913043 0.913043 0.913043
Ni 1.000000
d 1.000000
illum 2

newmtl wire_177028149
Ns 92.156863
Ka 0.000000 0.000000 0.000000
Kd 0.064000 0.064000 0.064000
Ks 0.950000 0.950000 0.950000
Ni 1.000000
d 1.000000
illum 2
