# Blender MTL File: 'None'
# Material Count: 6

newmtl Material.002
Ns 96.078431
Ka 0.000000 0.000000 0.000000
Kd 0.512000 0.512000 0.512000
Ks 0.950000 0.950000 0.950000
Ni 1.000000
d 1.000000
illum 2

newmtl None
Ns 0
Ka 0.000000 0.000000 0.000000
Kd 0.8 0.8 0.8
Ks 0.8 0.8 0.8
d 1
illum 2

newmtl buffy-blue
Ns 96.078431
Ka 0.000000 0.000000 0.000000
Kd 0.000000 0.000000 0.640000
Ks 0.500000 0.500000 0.500000
Ni 1.500000
d 0.000000
illum 2
map_Kd ..\textures\xan

newmtl buffy-gray
Ns 96.078431
Ka 0.000000 0.000000 0.000000
Kd 0.400000 0.400000 0.400000
Ks 0.500000 0.500000 0.500000
Ni 1.500000
d 0.000000
illum 2
map_Kd ..\textures\buffy256.ppm

newmtl buffy-green
Ns 96.078431
Ka 0.000000 0.000000 0.000000
Kd 0.000000 0.640000 0.000000
Ks 0.500000 0.500000 0.500000
Ni 1.500000
d 0.000000
illum 2
map_Kd ..\textures\willow256.ppm

newmtl buffy-red
Ns 96.078431
Ka 0.000000 0.000000 0.000000
Kd 0.640000 0.000000 0.000000
Ks 0.500000 0.500000 0.500000
Ni 1.500000
d 0.000000
illum 2
map_Kd ..\textures\angel256.ppm
