# Blender v2.74 (sub 0) OBJ File: ''
# www.blender.org
mtllib cubeMirror.mtl
o bottom_face
v 0.000000 0.000000 0.000000
v 1.000000 0.000000 0.000000
v 1.000000 -0.000000 1.000000
v 0.000000 -0.000000 1.000000
vt 0.000000 1.000000
vt 1.000000 1.000000
vt 1.000000 0.000000
vt 0.000000 0.000000
vn 0.000000 -1.000000 -0.000000
usemtl buffy-red
s 1
f 1/1/1 2/2/1 3/3/1
f 1/1/1 3/3/1 4/4/1
o front_face
v 0.000000 -0.000000 1.000000
v 1.000000 -0.000000 1.000000
v 1.000000 1.000000 1.000000
v 0.000000 1.000000 1.000000
vt 0.000000 1.000000
vt 1.000000 1.000000
vt 1.000000 0.000000
vt 0.000000 0.000000
vn 0.000000 -0.000000 1.000000
usemtl buffy-gray
s 1
f 5/5/2 6/6/2 7/7/2
f 5/5/2 7/7/2 8/8/2
o top_face
v 0.000000 1.000000 0.000000
v 1.000000 1.000000 1.000000
v 1.000000 1.000000 0.000000
v 0.000000 1.000000 1.000000
vt 0.000000 0.000000
vt 1.000000 1.000000
vt 1.000000 0.000000
vt 0.000000 1.000000
vn 0.000000 1.000000 0.000000
usemtl buffy-red
s 1
f 9/9/3 10/10/3 11/11/3
f 9/9/3 12/12/3 10/10/3
o left_face
v 0.000000 0.000000 0.000000
v 0.000000 1.000000 1.000000
v 0.000000 1.000000 0.000000
v 0.000000 -0.000000 1.000000
vt 0.000000 1.000000
vt 1.000000 0.000000
vt 0.000000 0.000000
vt 1.000000 1.000000
vn -1.000000 0.000000 0.000000
usemtl buffy-blue
s 1
f 13/13/4 14/14/4 15/15/4
f 13/13/4 16/16/4 14/14/4
o cube
v 0.000000 0.000000 0.000000
v 1.000000 1.000000 0.000000
v 1.000000 0.000000 0.000000
v 0.000000 1.000000 0.000000
vt 1.000000 1.000000
vt 0.000000 0.000000
vt 0.000000 1.000000
vt 1.000000 0.000000
vn 0.000000 0.000000 -1.000000
usemtl buffy-gray
s 1
f 17/17/5 18/18/5 19/19/5
f 17/17/5 20/20/5 18/18/5
o right_face
v 1.000000 0.000000 0.000000
v 1.000000 1.000000 0.000000
v 1.000000 1.000000 1.000000
v 1.000000 -0.000000 1.000000
vt 1.000000 1.000000
vt 1.000000 0.000000
vt 0.000000 0.000000
vt 0.000000 1.000000
vn 1.000000 0.000000 0.000000
usemtl buffy-green
s 1
f 21/21/6 22/22/6 23/23/6
f 21/21/6 23/23/6 24/24/6
o Plane
v -1.337174 -0.652997 2.034931
v 2.120737 -0.652997 2.034931
v 2.120737 -0.652996 -1.422980
v -1.337174 -0.652996 -1.422980
vn 0.000000 1.000000 0.000000
usemtl Material.002
s 1
f 25//7 26//7 27//7 28//7
