# Blender v2.74 (sub 0) OBJ File: ''
# www.blender.org
mtllib cubes.mtl
o Plane
v 1.189947 1.501337 3.030764
v 4.345599 1.501337 3.030764
v 1.189947 1.501337 -0.124888
v 4.345599 1.501337 -0.124888
vn 0.000000 1.000000 0.000000
usemtl None
s off
f 1//1 2//1 4//1 3//1
o Cube
v 3.918549 1.481376 1.093979
v 3.918549 1.481376 1.593832
v 3.418695 1.481376 1.593832
v 3.418695 1.481376 1.093978
v 3.918549 1.981229 1.093979
v 3.918549 1.981229 1.593832
v 3.418695 1.981229 1.593832
v 3.418695 1.981229 1.093978
vn 0.000000 -1.000000 0.000000
vn 0.000000 1.000000 0.000000
vn 1.000000 -0.000000 0.000000
vn -0.000000 -0.000000 1.000000
vn -1.000000 0.000000 -0.000000
vn 0.000000 0.000000 -1.000000
usemtl Material
s off
f 5//2 6//2 7//2 8//2
f 9//3 12//3 11//3 10//3
f 5//4 9//4 10//4 6//4
f 6//5 10//5 11//5 7//5
f 7//6 11//6 12//6 8//6
f 9//7 5//7 8//7 12//7
o Cube.001
v 3.385199 2.217972 1.093979
v 3.385199 2.217972 1.593832
v 2.885346 2.217972 1.593832
v 2.885346 2.217972 1.093978
v 3.385200 2.717825 1.093979
v 3.385199 2.717825 1.593832
v 2.885346 2.717825 1.593832
v 2.885346 2.717825 1.093978
vn 0.000000 -1.000000 0.000000
vn 0.000000 1.000000 0.000000
vn 1.000000 -0.000000 0.000000
vn -0.000000 -0.000000 1.000000
vn -1.000000 -0.000000 -0.000000
vn 0.000000 0.000000 -1.000000
usemtl Material.001
s off
f 13//8 14//8 15//8 16//8
f 17//9 20//9 19//9 18//9
f 13//10 17//10 18//10 14//10
f 14//11 18//11 19//11 15//11
f 15//12 19//12 20//12 16//12
f 17//13 13//13 16//13 20//13
o Cube.002
v 3.459322 2.217972 1.858539
v 3.459322 2.217972 2.358392
v 2.959469 2.217972 2.358392
v 2.959469 2.217972 1.858539
v 3.459322 2.717825 1.858539
v 3.459322 2.717825 2.358392
v 2.959468 2.717825 2.358392
v 2.959469 2.717825 1.858539
vn 0.000000 -1.000000 0.000000
vn 0.000000 1.000000 0.000000
vn 1.000000 -0.000000 0.000000
vn 0.000000 -0.000000 1.000000
vn -1.000000 -0.000000 -0.000000
vn 0.000000 0.000000 -1.000000
usemtl Material.002
s off
f 21//14 22//14 23//14 24//14
f 25//15 28//15 27//15 26//15
f 21//16 25//16 26//16 22//16
f 22//17 26//17 27//17 23//17
f 23//18 27//18 28//18 24//18
f 25//19 21//19 24//19 28//19
o Cube.003
v 3.858341 1.465217 1.979794
v 3.858341 1.465217 2.479647
v 3.358488 1.465217 2.479647
v 3.358488 1.465217 1.979793
v 3.858341 1.965070 1.979794
v 3.858341 1.965070 2.479647
v 3.358487 1.965070 2.479647
v 3.358488 1.965070 1.979794
vn 0.000000 -1.000000 0.000000
vn 0.000000 1.000000 0.000000
vn 1.000000 0.000000 0.000000
vn 0.000000 -0.000000 1.000000
vn -1.000000 -0.000000 -0.000000
vn 0.000000 0.000000 -1.000000
usemtl Material.003
s off
f 29//20 30//20 31//20 32//20
f 33//21 36//21 35//21 34//21
f 29//22 33//22 34//22 30//22
f 30//23 34//23 35//23 31//23
f 31//24 35//24 36//24 32//24
f 33//25 29//25 32//25 36//25
