# Blender MTL File: 'weapons.blend'
# Material Count: 6

newmtl Material
Ns 96.078431
Ka 0.000000 0.000000 0.000000
Kd 0.118104 0.040572 0.640000
Ks 0.500000 0.500000 0.500000
Ni 1.000000
d 1.000000
illum 2

newmtl Material.001
Ns 96.078431
Ka 0.000000 0.000000 0.000000
Kd 0.640000 0.640000 0.640000
Ks 0.977012 0.977012 0.977012
Ni 1.000000
d 1.000000
illum 2

newmtl Material.002
Ns 96.078431
Ka 0.000000 0.000000 0.000000
Kd 0.640000 0.013758 0.268672
Ks 0.950000 0.950000 0.950000
Ni 1.000000
d 1.000000
illum 2

newmtl Material.003
Ns 96.078431
Ka 0.000000 0.000000 0.000000
Kd 0.640000 0.000000 0.001417
Ks 0.500000 0.500000 0.500000
Ni 1.000000
d 1.000000
illum 2

newmtl Material.004
Ns 96.078431
Ka 0.000000 0.000000 0.000000
Kd 0.640000 0.452031 0.000000
Ks 0.500000 0.500000 0.500000
Ni 1.000000
d 1.000000
illum 2

newmtl Material.005
Ns 96.078431
Ka 0.000000 0.000000 0.000000
Kd 0.640000 0.000000 0.010252
Ks 0.500000 0.500000 0.500000
Ni 1.000000
d 1.000000
illum 2
